…
USING MUTATE, SUMMARISE and PIPES 1. Add a column to the data set that
represents the mean number of words spoken during all visits. 2. Use the
summarise function and pipes to add an column in the data set containing
the mean amount of words produced by each trial across all visits. HINT:
group by Child.ID 3. The solution to task above enables us to assess the
average amount of words produced by each child. Why don’t we just use
these average values to describe the language production of the
children? What is the advantage of keeping all the data?

``` r
#1.
df_merged %>% group_by(SUBJ) %>% mutate(mean(tokens_CHI))
```

    ## # A tibble: 352 x 21
    ## # Groups:   SUBJ [61]
    ##    SUBJ  VISIT Ethnicity Diagnosis Gender   Age  ADOS nonverbalIQ verbalIQ
    ##    <fct> <int> <fct>     <fct>     <fct>  <dbl> <int>       <int>    <int>
    ##  1 1         1 White     TD        M       19.8     0          28       14
    ##  2 1         2 White     TD        M       23.9    NA          NA       NA
    ##  3 1         3 White     TD        M       27.7    NA          NA       NA
    ##  4 1         4 White     TD        M       32.9    NA          33       NA
    ##  5 1         5 White     TD        M       35.9     0          NA       NA
    ##  6 1         6 White     TD        M       40.1    NA          42       44
    ##  7 2         1 White     ASD       M       28.8    13          34       27
    ##  8 2         2 White     ASD       M       33.2    NA          NA       NA
    ##  9 2         3 White     ASD       M       37.1    NA          NA       NA
    ## 10 2         4 White     ASD       M       41.1    NA          49       NA
    ## # ... with 342 more rows, and 12 more variables: Socialization <int>,
    ## #   MOT_MLU <dbl>, CHI_MLU <dbl>, types_MOT <int>, types_CHI <int>,
    ## #   tokens_MOT <int>, tokens_CHI <int>, ADOS1 <int>, nonverbalIQ1 <int>,
    ## #   verbalIQ1 <int>, Socialization1 <int>, `mean(tokens_CHI)` <dbl>
…
